...
----------------------------------------------------------------------
Ran 3 tests in 0.001s

OK
Name               Stmts   Miss Branch BrPart  Cover   Missing
--------------------------------------------------------------
Diplomacy.py          72      7     44      4    91%   20->23, 90->93, 93-100, 101->111, 111-115, 135->136, 136
TestDiplomacy.py      21      0      2      1    96%   61->exit
--------------------------------------------------------------
TOTAL                 93      7     46      5    91%
